{
  "required": true,
  "minVersion": "0.7.10",
  "package": "com.minecraftonline.nope.mixin",
  "refmap": "mixins.nope.refmap.json",
  "target": "@env(DEFAULT)",
  "compatibilityLevel": "JAVA_8",
  "mixins": [
    "collision.ServerScoreboardCollisionMixin",
    "collision.ScorePlayerTeamMixin"
  ]
}